id;name;code;description;status;update_time
1;FTP Handcrafted;Licensed;Ohio navigating;9806;2021-04-06T18:10:21
2;Swedish Krona Cotton Washington;blue South Carolina Awesome Concrete Salad;robust aggregate XSS;36020;2021-04-06T19:34:24
3;circuit;Suriname engage Markets;Myanmar;63714;2021-04-06T06:07:29
4;Avon Program Function-based;Garden;tan;56290;2021-04-06T18:12:25
5;programming;Albania generating payment;Kids Beauty;43429;2021-04-06T15:59:34
6;directional Frozen RSS;dot-com;markets Bedfordshire Auto Loan Account;61923;2021-04-06T09:13:30
7;Berkshire transmitting;Plastic;Applications;27465;2021-04-06T13:53:33
8;orange;Small THX Fresh;Focused Kiribati open-source;84948;2021-04-06T20:21:28
9;24 hour Berkshire;hard drive Gloves;Grocery olive;88625;2021-04-06T03:58:21
10;Specialist Jewelery;Manager;Wooden compressing;56250;2021-04-06T19:06:45
