id;name;status;type;update_time
1;Bedfordshire Coordinator;80478;38662;2021-05-30T09:42:51
2;HTTP Investment Account Chips;40055;33562;2021-05-29T19:44:30
3;Principal Business-focused;95744;74713;2021-05-30T14:18:24
4;online Savings Account ability;51282;84176;2021-05-30T00:37:53
5;Handmade transmit District;51938;45230;2021-05-30T00:22:25
6;back-end robust;8927;13990;2021-05-29T20:00:36
7;Producer;20852;19919;2021-05-30T17:07:06
8;Rhode Island 5th generation;67931;49836;2021-05-29T19:13:26
9;GB neural Industrial;64785;24915;2021-05-30T11:41:30
10;Uganda Shilling frame transmit;81661;77203;2021-05-30T02:35:05
