{
  "name": "ImageLink",
  "fields": [
    {
      "fieldName": "name",
      "fieldType": "String",
      "fieldValidateRules": ["maxlength"],
      "fieldValidateRulesMaxlength": "60"
    },
    {
      "fieldName": "status",
      "fieldType": "Long"
    },
    {
      "fieldName": "updateTime",
      "fieldType": "ZonedDateTime"
    },
    {
      "fieldName": "imageLink",
      "fieldType": "String",
      "fieldValidateRules": ["maxlength"],
      "fieldValidateRulesMaxlength": "1000"
    }
  ],
  "relationships": [
    {
      "relationshipType": "many-to-one",
      "otherEntityName": "news",
      "otherEntityRelationshipName": "dsImageLink",
      "relationshipName": "news",
      "otherEntityField": "id"
    }
  ],
  "changelogDate": "20210410115158",
  "entityTableName": "image_link",
  "dto": "mapstruct",
  "pagination": "pagination",
  "service": "serviceClass",
  "jpaMetamodelFiltering": true,
  "fluentMethods": true,
  "readOnly": false,
  "embedded": false,
  "clientRootFolder": "",
  "applications": "*"
}
