{
  "name": "Roles",
  "fields": [
    {
      "fieldName": "name",
      "fieldType": "String",
      "fieldValidateRules": ["maxlength"],
      "fieldValidateRulesMaxlength": "60"
    },
    {
      "fieldName": "code",
      "fieldType": "String",
      "fieldValidateRules": ["maxlength"],
      "fieldValidateRulesMaxlength": "60"
    },
    {
      "fieldName": "description",
      "fieldType": "String",
      "fieldValidateRules": ["maxlength"],
      "fieldValidateRulesMaxlength": "1000"
    },
    {
      "fieldName": "status",
      "fieldType": "Long"
    },
    {
      "fieldName": "updateTime",
      "fieldType": "ZonedDateTime"
    },
    {
      "fieldName": "type",
      "fieldType": "Long"
    }
  ],
  "relationships": [
    {
      "relationshipType": "one-to-many",
      "otherEntityName": "userRole",
      "otherEntityRelationshipName": "roles",
      "relationshipName": "dsUserRole"
    },
    {
      "relationshipType": "one-to-many",
      "otherEntityName": "roleObject",
      "otherEntityRelationshipName": "roles",
      "relationshipName": "dsRoleObject"
    }
  ],
  "changelogDate": "20210407020555",
  "entityTableName": "roles",
  "dto": "mapstruct",
  "pagination": "pagination",
  "service": "serviceClass",
  "jpaMetamodelFiltering": true,
  "fluentMethods": true,
  "readOnly": false,
  "embedded": false,
  "clientRootFolder": "",
  "applications": "*"
}
