{
  "name": "TypeTest",
  "fields": [
    {
      "fieldName": "updateTime",
      "fieldType": "ZonedDateTime"
    }
  ],
  "relationships": [
    {
      "relationshipType": "many-to-one",
      "otherEntityName": "typeDisease",
      "otherEntityRelationshipName": "dsTypeTest",
      "relationshipName": "typedisease",
      "otherEntityField": "id"
    },
    {
      "relationshipType": "many-to-one",
      "otherEntityName": "testDisease",
      "otherEntityRelationshipName": "dsTypeTest",
      "relationshipName": "testdisease",
      "otherEntityField": "id"
    }
  ],
  "changelogDate": "20210504085938",
  "entityTableName": "type_test",
  "dto": "mapstruct",
  "pagination": "pagination",
  "service": "serviceClass",
  "jpaMetamodelFiltering": true,
  "fluentMethods": true,
  "readOnly": false,
  "embedded": false,
  "clientRootFolder": "",
  "applications": "*"
}
